[
    {
        "id": 1,
        "email": "simplicio.rsb@gmail.com",
        "password": "qaz12345"
    },
    {
        "id": 2,
        "email": "jessicagarcez07@gmail.com",
        "password": "objetivo5"
    }
]